{
    "page": {
        "items": [
            {
                "agrupador": null,
                "name": "App RTVE Noticias",
                "title": null,
                "url": null,
                "programsRef": "https://api.rtve.es/api/agr-programas/1000691/programas",
                "videosRef": "https://api.rtve.es/api/agr-programas/1000691/videos",
                "audiosRef": "https://api.rtve.es/api/agr-programas/1000691/audios",
                "multimediasRef": "https://api.rtve.es/api/agr-programas/1000691/multimedias",
                "uri": "https://api.rtve.es/api/agr-programas/1000691",
                "htmlUrl": null,
                "htmlShortUrl": null,
                "id": "1000691"
            },
            {
                "agrupador": null,
                "name": "Agrupador CLAN - COMEDIA Y MUCHO MÁS",
                "title": null,
                "url": null,
                "programsRef": "https://api.rtve.es/api/agr-programas/1000389/programas",
                "videosRef": "https://api.rtve.es/api/agr-programas/1000389/videos",
                "audiosRef": "https://api.rtve.es/api/agr-programas/1000389/audios",
                "multimediasRef": "https://api.rtve.es/api/agr-programas/1000389/multimedias",
                "uri": "https://api.rtve.es/api/agr-programas/1000389",
                "htmlUrl": null,
                "htmlShortUrl": null,
                "id": "1000389"
            },
            {
                "agrupador": null,
                "name": "Agrupador CLAN - TUS MASCOTAS FAVORITAS",
                "title": null,
                "url": null,
                "programsRef": "https://api.rtve.es/api/agr-programas/1000385/programas",
                "videosRef": "https://api.rtve.es/api/agr-programas/1000385/videos",
                "audiosRef": "https://api.rtve.es/api/agr-programas/1000385/audios",
                "multimediasRef": "https://api.rtve.es/api/agr-programas/1000385/multimedias",
                "uri": "https://api.rtve.es/api/agr-programas/1000385",
                "htmlUrl": null,
                "htmlShortUrl": null,
                "id": "1000385"
            },
            {
                "agrupador": null,
                "name": "Agrupador CLAN - BABY CLAN",
                "title": null,
                "url": null,
                "programsRef": "https://api.rtve.es/api/agr-programas/1000384/programas",
                "videosRef": "https://api.rtve.es/api/agr-programas/1000384/videos",
                "audiosRef": "https://api.rtve.es/api/agr-programas/1000384/audios",
                "multimediasRef": "https://api.rtve.es/api/agr-programas/1000384/multimedias",
                "uri": "https://api.rtve.es/api/agr-programas/1000384",
                "htmlUrl": null,
                "htmlShortUrl": null,
                "id": "1000384"
            },
            {
                "agrupador": null,
                "name": "Agrupador CLAN - LO MÁS VISTO DEL MES",
                "title": null,
                "url": null,
                "programsRef": "https://api.rtve.es/api/agr-programas/1000383/programas",
                "videosRef": "https://api.rtve.es/api/agr-programas/1000383/videos",
                "audiosRef": "https://api.rtve.es/api/agr-programas/1000383/audios",
                "multimediasRef": "https://api.rtve.es/api/agr-programas/1000383/multimedias",
                "uri": "https://api.rtve.es/api/agr-programas/1000383",
                "htmlUrl": null,
                "htmlShortUrl": null,
                "id": "1000383"
            },
            {
                "agrupador": null,
                "name": "TEST JCM",
                "title": null,
                "url": null,
                "programsRef": "https://api.rtve.es/api/agr-programas/1000299/programas",
                "videosRef": "https://api.rtve.es/api/agr-programas/1000299/videos",
                "audiosRef": "https://api.rtve.es/api/agr-programas/1000299/audios",
                "multimediasRef": "https://api.rtve.es/api/agr-programas/1000299/multimedias",
                "uri": "https://api.rtve.es/api/agr-programas/1000299",
                "htmlUrl": null,
                "htmlShortUrl": null,
                "id": "1000299"
            },
            {
                "agrupador": null,
                "name": "Reportajes Radio Nacional de España",
                "title": "Reportajes Radio Nacional de España",
                "url": null,
                "programsRef": "https://api.rtve.es/api/agr-programas/1000298/programas",
                "videosRef": "https://api.rtve.es/api/agr-programas/1000298/videos",
                "audiosRef": "https://api.rtve.es/api/agr-programas/1000298/audios",
                "multimediasRef": "https://api.rtve.es/api/agr-programas/1000298/multimedias",
                "uri": "https://api.rtve.es/api/agr-programas/1000298",
                "htmlUrl": null,
                "htmlShortUrl": null,
                "id": "1000298"
            },
            {
                "agrupador": null,
                "name": "Todos los podcast",
                "title": "Todos los podcast",
                "url": "https://www.rtve.es/play/radio/podcasts/",
                "programsRef": "https://api.rtve.es/api/agr-programas/18711/programas",
                "videosRef": "https://api.rtve.es/api/agr-programas/18711/videos",
                "audiosRef": "https://api.rtve.es/api/agr-programas/18711/audios",
                "multimediasRef": "https://api.rtve.es/api/agr-programas/18711/multimedias",
                "uri": "https://api.rtve.es/api/agr-programas/18711",
                "htmlUrl": "https://www.rtve.es/play/radio/podcasts/",
                "htmlShortUrl": "https://www.rtve.es/play/radio/podcasts/",
                "id": "18711"
            },
            {
                "agrupador": {
                    "uid": "ALC_AGPODC",
                    "name": "Podcast",
                    "permalink": "podcast",
                    "childrenRef": "https://api.rtve.es/api/agrupadores/169332/hijos",
                    "programsRef": "https://api.rtve.es/api/agrupadores/169332/programas",
                    "videosRef": "https://api.rtve.es/api/agrupadores/169332/videos",
                    "audiosRef": "https://api.rtve.es/api/agrupadores/169332/audios",
                    "multimediasRef": "https://api.rtve.es/api/agrupadores/169332/multimedias",
                    "uri": "https://api.rtve.es/api/agrupadores/169332",
                    "htmlUrl": "https://www.rtve.es/play/programas/todos/podcast/1/",
                    "htmlShortUrl": "/play/programas/todos/podcast/1/",
                    "id": "169332"
                },
                "name": "RNE Audio podcast",
                "title": "RNE Audio podcast",
                "url": "https://www.rtve.es/play/radio/podcasts/",
                "programsRef": "https://api.rtve.es/api/agr-programas/18690/programas",
                "videosRef": "https://api.rtve.es/api/agr-programas/18690/videos",
                "audiosRef": "https://api.rtve.es/api/agr-programas/18690/audios",
                "multimediasRef": "https://api.rtve.es/api/agr-programas/18690/multimedias",
                "uri": "https://api.rtve.es/api/agr-programas/18690",
                "htmlUrl": "https://www.rtve.es/play/radio/podcasts/",
                "htmlShortUrl": "https://www.rtve.es/play/radio/podcasts/",
                "id": "18690"
            },
            {
                "agrupador": null,
                "name": "Prueba ops",
                "title": "Prueba ops",
                "url": null,
                "programsRef": "https://api.rtve.es/api/agr-programas/18670/programas",
                "videosRef": "https://api.rtve.es/api/agr-programas/18670/videos",
                "audiosRef": "https://api.rtve.es/api/agr-programas/18670/audios",
                "multimediasRef": "https://api.rtve.es/api/agr-programas/18670/multimedias",
                "uri": "https://api.rtve.es/api/agr-programas/18670",
                "htmlUrl": null,
                "htmlShortUrl": null,
                "id": "18670"
            },
            {
                "agrupador": {
                    "uid": "ALC_PLAYZ",
                    "name": "Playz",
                    "permalink": "playz",
                    "childrenRef": "https://api.rtve.es/api/agrupadores/137810/hijos",
                    "programsRef": "https://api.rtve.es/api/agrupadores/137810/programas",
                    "videosRef": "https://api.rtve.es/api/agrupadores/137810/videos",
                    "audiosRef": "https://api.rtve.es/api/agrupadores/137810/audios",
                    "multimediasRef": "https://api.rtve.es/api/agrupadores/137810/multimedias",
                    "uri": "https://api.rtve.es/api/agrupadores/137810",
                    "htmlUrl": "https://www.rtve.es/play/programas/todos/playz/1/",
                    "htmlShortUrl": "/play/programas/todos/playz/1/",
                    "id": "137810"
                },
                "name": "Playz",
                "title": null,
                "url": "https://www.rtve.es/play/playz/",
                "programsRef": "https://api.rtve.es/api/agr-programas/3610/programas",
                "videosRef": "https://api.rtve.es/api/agr-programas/3610/videos",
                "audiosRef": "https://api.rtve.es/api/agr-programas/3610/audios",
                "multimediasRef": "https://api.rtve.es/api/agr-programas/3610/multimedias",
                "uri": "https://api.rtve.es/api/agr-programas/3610",
                "htmlUrl": "https://www.rtve.es/play/playz/",
                "htmlShortUrl": "https://www.rtve.es/play/playz/",
                "id": "3610"
            },
            {
                "agrupador": {
                    "uid": "ALC_AGEDUC",
                    "name": "Educación",
                    "permalink": "educacion",
                    "childrenRef": "https://api.rtve.es/api/agrupadores/42271/hijos",
                    "programsRef": "https://api.rtve.es/api/agrupadores/42271/programas",
                    "videosRef": "https://api.rtve.es/api/agrupadores/42271/videos",
                    "audiosRef": "https://api.rtve.es/api/agrupadores/42271/audios",
                    "multimediasRef": "https://api.rtve.es/api/agrupadores/42271/multimedias",
                    "uri": "https://api.rtve.es/api/agrupadores/42271",
                    "htmlUrl": "https://www.rtve.es/play/programas/todos/educacion/1/",
                    "htmlShortUrl": "/play/programas/todos/educacion/1/",
                    "id": "42271"
                },
                "name": "Educación",
                "title": null,
                "url": "https://www.rtve.es/play/educacion/",
                "programsRef": "https://api.rtve.es/api/agr-programas/3550/programas",
                "videosRef": "https://api.rtve.es/api/agr-programas/3550/videos",
                "audiosRef": "https://api.rtve.es/api/agr-programas/3550/audios",
                "multimediasRef": "https://api.rtve.es/api/agr-programas/3550/multimedias",
                "uri": "https://api.rtve.es/api/agr-programas/3550",
                "htmlUrl": "https://www.rtve.es/play/educacion/",
                "htmlShortUrl": "https://www.rtve.es/play/educacion/",
                "id": "3550"
            },
            {
                "agrupador": {
                    "uid": "ALC_AGDOAC",
                    "name": "Documentales de actualidad",
                    "permalink": "documentales-de-actualidad",
                    "childrenRef": "https://api.rtve.es/api/agrupadores/70131/hijos",
                    "programsRef": "https://api.rtve.es/api/agrupadores/70131/programas",
                    "videosRef": "https://api.rtve.es/api/agrupadores/70131/videos",
                    "audiosRef": "https://api.rtve.es/api/agrupadores/70131/audios",
                    "multimediasRef": "https://api.rtve.es/api/agrupadores/70131/multimedias",
                    "uri": "https://api.rtve.es/api/agrupadores/70131",
                    "htmlUrl": "https://www.rtve.es/play/programas/todos/documentales-de-actualidad/1/",
                    "htmlShortUrl": "/play/programas/todos/documentales-de-actualidad/1/",
                    "id": "70131"
                },
                "name": "Documentales sociedad",
                "title": null,
                "url": "https://www.rtve.es/play/documentales/",
                "programsRef": "https://api.rtve.es/api/agr-programas/3470/programas",
                "videosRef": "https://api.rtve.es/api/agr-programas/3470/videos",
                "audiosRef": "https://api.rtve.es/api/agr-programas/3470/audios",
                "multimediasRef": "https://api.rtve.es/api/agr-programas/3470/multimedias",
                "uri": "https://api.rtve.es/api/agr-programas/3470",
                "htmlUrl": "https://www.rtve.es/play/documentales/",
                "htmlShortUrl": "https://www.rtve.es/play/documentales/",
                "id": "3470"
            },
            {
                "agrupador": null,
                "name": "La 2 es música",
                "title": null,
                "url": "https://www.rtve.es/play/la-2/",
                "programsRef": "https://api.rtve.es/api/agr-programas/3270/programas",
                "videosRef": "https://api.rtve.es/api/agr-programas/3270/videos",
                "audiosRef": "https://api.rtve.es/api/agr-programas/3270/audios",
                "multimediasRef": "https://api.rtve.es/api/agr-programas/3270/multimedias",
                "uri": "https://api.rtve.es/api/agr-programas/3270",
                "htmlUrl": "https://www.rtve.es/play/la-2/",
                "htmlShortUrl": "https://www.rtve.es/play/la-2/",
                "id": "3270"
            },
            {
                "agrupador": null,
                "name": "Play Radio>Para nostálgicos",
                "title": "Para nostálgicos",
                "url": null,
                "programsRef": "https://api.rtve.es/api/agr-programas/3210/programas",
                "videosRef": "https://api.rtve.es/api/agr-programas/3210/videos",
                "audiosRef": "https://api.rtve.es/api/agr-programas/3210/audios",
                "multimediasRef": "https://api.rtve.es/api/agr-programas/3210/multimedias",
                "uri": "https://api.rtve.es/api/agr-programas/3210",
                "htmlUrl": null,
                "htmlShortUrl": null,
                "id": "3210"
            },
            {
                "agrupador": {
                    "uid": "ALC_AGVIAJ",
                    "name": "Viajes",
                    "permalink": "viajes",
                    "childrenRef": "https://api.rtve.es/api/agrupadores/42272/hijos",
                    "programsRef": "https://api.rtve.es/api/agrupadores/42272/programas",
                    "videosRef": "https://api.rtve.es/api/agrupadores/42272/videos",
                    "audiosRef": "https://api.rtve.es/api/agrupadores/42272/audios",
                    "multimediasRef": "https://api.rtve.es/api/agrupadores/42272/multimedias",
                    "uri": "https://api.rtve.es/api/agrupadores/42272",
                    "htmlUrl": "https://www.rtve.es/play/programas/todos/viajes/1/",
                    "htmlShortUrl": "/play/programas/todos/viajes/1/",
                    "id": "42272"
                },
                "name": "Viajes La 2",
                "title": "Viajes",
                "url": "https://www.rtve.es/play/la-2/",
                "programsRef": "https://api.rtve.es/api/agr-programas/3190/programas",
                "videosRef": "https://api.rtve.es/api/agr-programas/3190/videos",
                "audiosRef": "https://api.rtve.es/api/agr-programas/3190/audios",
                "multimediasRef": "https://api.rtve.es/api/agr-programas/3190/multimedias",
                "uri": "https://api.rtve.es/api/agr-programas/3190",
                "htmlUrl": "https://www.rtve.es/play/la-2/",
                "htmlShortUrl": "https://www.rtve.es/play/la-2/",
                "id": "3190"
            },
            {
                "agrupador": {
                    "uid": "ALC_AGVIAJ",
                    "name": "Viajes",
                    "permalink": "viajes",
                    "childrenRef": "https://api.rtve.es/api/agrupadores/42272/hijos",
                    "programsRef": "https://api.rtve.es/api/agrupadores/42272/programas",
                    "videosRef": "https://api.rtve.es/api/agrupadores/42272/videos",
                    "audiosRef": "https://api.rtve.es/api/agrupadores/42272/audios",
                    "multimediasRef": "https://api.rtve.es/api/agrupadores/42272/multimedias",
                    "uri": "https://api.rtve.es/api/agrupadores/42272",
                    "htmlUrl": "https://www.rtve.es/play/programas/todos/viajes/1/",
                    "htmlShortUrl": "/play/programas/todos/viajes/1/",
                    "id": "42272"
                },
                "name": "Viajes España",
                "title": "Viajes",
                "url": null,
                "programsRef": "https://api.rtve.es/api/agr-programas/3171/programas",
                "videosRef": "https://api.rtve.es/api/agr-programas/3171/videos",
                "audiosRef": "https://api.rtve.es/api/agr-programas/3171/audios",
                "multimediasRef": "https://api.rtve.es/api/agr-programas/3171/multimedias",
                "uri": "https://api.rtve.es/api/agr-programas/3171",
                "htmlUrl": "https://www.rtve.es/play/programas/todos/viajes/1/",
                "htmlShortUrl": "/play/programas/todos/viajes/1/",
                "id": "3171"
            },
            {
                "agrupador": {
                    "uid": "ALC_AGVIAJ",
                    "name": "Viajes",
                    "permalink": "viajes",
                    "childrenRef": "https://api.rtve.es/api/agrupadores/42272/hijos",
                    "programsRef": "https://api.rtve.es/api/agrupadores/42272/programas",
                    "videosRef": "https://api.rtve.es/api/agrupadores/42272/videos",
                    "audiosRef": "https://api.rtve.es/api/agrupadores/42272/audios",
                    "multimediasRef": "https://api.rtve.es/api/agrupadores/42272/multimedias",
                    "uri": "https://api.rtve.es/api/agrupadores/42272",
                    "htmlUrl": "https://www.rtve.es/play/programas/todos/viajes/1/",
                    "htmlShortUrl": "/play/programas/todos/viajes/1/",
                    "id": "42272"
                },
                "name": "Viajes mundo",
                "title": "Viajes",
                "url": null,
                "programsRef": "https://api.rtve.es/api/agr-programas/3170/programas",
                "videosRef": "https://api.rtve.es/api/agr-programas/3170/videos",
                "audiosRef": "https://api.rtve.es/api/agr-programas/3170/audios",
                "multimediasRef": "https://api.rtve.es/api/agr-programas/3170/multimedias",
                "uri": "https://api.rtve.es/api/agr-programas/3170",
                "htmlUrl": "https://www.rtve.es/play/programas/todos/viajes/1/",
                "htmlShortUrl": "/play/programas/todos/viajes/1/",
                "id": "3170"
            },
            {
                "agrupador": null,
                "name": "Play Radio>Arte y espectáculos",
                "title": "Arte y espectáculos",
                "url": "https://www.rtve.es/play/radio/",
                "programsRef": "https://api.rtve.es/api/agr-programas/3112/programas",
                "videosRef": "https://api.rtve.es/api/agr-programas/3112/videos",
                "audiosRef": "https://api.rtve.es/api/agr-programas/3112/audios",
                "multimediasRef": "https://api.rtve.es/api/agr-programas/3112/multimedias",
                "uri": "https://api.rtve.es/api/agr-programas/3112",
                "htmlUrl": "https://www.rtve.es/play/radio/",
                "htmlShortUrl": "https://www.rtve.es/play/radio/",
                "id": "3112"
            },
            {
                "agrupador": null,
                "name": "Play Radio>Firmas",
                "title": "Firmas",
                "url": "https://www.rtve.es/play/radio/",
                "programsRef": "https://api.rtve.es/api/agr-programas/3111/programas",
                "videosRef": "https://api.rtve.es/api/agr-programas/3111/videos",
                "audiosRef": "https://api.rtve.es/api/agr-programas/3111/audios",
                "multimediasRef": "https://api.rtve.es/api/agr-programas/3111/multimedias",
                "uri": "https://api.rtve.es/api/agr-programas/3111",
                "htmlUrl": "https://www.rtve.es/play/radio/",
                "htmlShortUrl": "https://www.rtve.es/play/radio/",
                "id": "3111"
            }
        ],
        "number": 1,
        "size": 20,
        "offset": 0,
        "total": 289,
        "totalPages": 15,
        "numElements": 20
    }
}